Bellabeat Case Analysis
…
unique(sleep_daily$Id)  

##  [1] 1503960366 1644430081 1844505072 1927972279 2026352035 2320127002
##  [7] 2347167796 3977333714 4020332650 4319703577 4388161847 4445114986
## [13] 4558609924 4702921684 5553957443 5577150313 6117666160 6775888955
## [19] 6962181067 7007744171 7086361926 8053475328 8378563200 8792009665

unique(intenseties_daily)

## # A tibble: 940 × 10
##         Id ActivityDay SedentaryMinutes LightlyActiveMinutes FairlyActiveMinutes
##      <dbl> <chr>                  <dbl>                <dbl>               <dbl>
##  1  1.50e9 4/12/2016                728                  328                  13
##  2  1.50e9 4/13/2016                776                  217                  19
##  3  1.50e9 4/14/2016               1218                  181                  11
##  4  1.50e9 4/15/2016                726                  209                  34
##  5  1.50e9 4/16/2016                773                  221                  10
##  6  1.50e9 4/17/2016                539                  164                  20
##  7  1.50e9 4/18/2016               1149                  233                  16
##  8  1.50e9 4/19/2016                775                  264                  31
##  9  1.50e9 4/20/2016                818                  205                  12
## 10  1.50e9 4/21/2016                838                  211                   8
## # ℹ 930 more rows
## # ℹ 5 more variables: VeryActiveMinutes <dbl>, SedentaryActiveDistance <dbl>,
## #   LightActiveDistance <dbl>, ModeratelyActiveDistance <dbl>,
## #   VeryActiveDistance <dbl>
…
sum(duplicated(sleep_daily))

## [1] 0

As stated in the code we now have no duplicates in our sleep_daily
data set.

Cleaning the datasets

We will now clean all data sets and make sure the names are in proper
name format across all the tables and easy to read.

clean_names(activity_daily)

## # A tibble: 940 × 15
##            id activity_date total_steps total_distance tracker_distance
##         <dbl> <chr>               <dbl>          <dbl>            <dbl>
##  1 1503960366 4/12/2016           13162           8.5              8.5 
##  2 1503960366 4/13/2016           10735           6.97             6.97
##  3 1503960366 4/14/2016           10460           6.74             6.74
##  4 1503960366 4/15/2016            9762           6.28             6.28
##  5 1503960366 4/16/2016           12669           8.16             8.16
##  6 1503960366 4/17/2016            9705           6.48             6.48
##  7 1503960366 4/18/2016           13019           8.59             8.59
##  8 1503960366 4/19/2016           15506           9.88             9.88
##  9 1503960366 4/20/2016           10544           6.68             6.68
## 10 1503960366 4/21/2016            9819           6.34             6.34
## # ℹ 930 more rows
## # ℹ 10 more variables: logged_activities_distance <dbl>,
## #   very_active_distance <dbl>, moderately_active_distance <dbl>,
## #   light_active_distance <dbl>, sedentary_active_distance <dbl>,
## #   very_active_minutes <dbl>, fairly_active_minutes <dbl>,
## #   lightly_active_minutes <dbl>, sedentary_minutes <dbl>, calories <dbl>

activity_daily <- rename_with(activity_daily,tolower)

clean_names(sleep_daily)

## # A tibble: 410 × 5
##          id sleep_day total_sleep_records total_minutes_asleep total_time_in_bed
##       <dbl> <chr>                   <dbl>                <dbl>             <dbl>
##  1   1.50e9 4/12/201…                   1                  327               346
##  2   1.50e9 4/13/201…                   2                  384               407
##  3   1.50e9 4/15/201…                   1                  412               442
##  4   1.50e9 4/16/201…                   2                  340               367
##  5   1.50e9 4/17/201…                   1                  700               712
##  6   1.50e9 4/19/201…                   1                  304               320
##  7   1.50e9 4/20/201…                   1                  360               377
##  8   1.50e9 4/21/201…                   1                  325               364
##  9   1.50e9 4/23/201…                   1                  361               384
## 10   1.50e9 4/24/201…                   1                  430               449
## # ℹ 400 more rows

sleep_daily <- rename_with(sleep_daily,tolower)

clean_names(intenseties_daily)

## # A tibble: 940 × 10
##            id activity_day sedentary_minutes lightly_active_minutes
##         <dbl> <chr>                    <dbl>                  <dbl>
##  1 1503960366 4/12/2016                  728                    328
##  2 1503960366 4/13/2016                  776                    217
##  3 1503960366 4/14/2016                 1218                    181
##  4 1503960366 4/15/2016                  726                    209
##  5 1503960366 4/16/2016                  773                    221
##  6 1503960366 4/17/2016                  539                    164
##  7 1503960366 4/18/2016                 1149                    233
##  8 1503960366 4/19/2016                  775                    264
##  9 1503960366 4/20/2016                  818                    205
## 10 1503960366 4/21/2016                  838                    211
## # ℹ 930 more rows
## # ℹ 6 more variables: fairly_active_minutes <dbl>, very_active_minutes <dbl>,
## #   sedentary_active_distance <dbl>, light_active_distance <dbl>,
## #   moderately_active_distance <dbl>, very_active_distance <dbl>
…
